{
	"$schema": "https://mbabenefits.com.au/schema/v1/AccountCreate",
	"type": "object",
	"properties": {
		"client_id":{
			"type": "string",
			"pattern": "^[A-Za-z0-9]{3,32}$",
			"description": "Your client_id as provided with your API credentials"
		},
		"client_secret":{
			"type": "string",
			"pattern": "^[A-Za-z0-9-]{36}$",
			"description": "Your client_secret as provided with your API credentials"
		},
		"reference":{
			"type": "string",
			"pattern": "^[A-Za-z0-9- ]{32}$",
			"description": "A unique reference for this API call. Never reuse a reference it should always be unique to all API calls."
		},
		"email":{
			"description": "This and group identifies a customer. Basic check, more detailed validation done at backend",
			"type": "string",
			"pattern": "^.{5,96}$"
		},
		"user_uid": {
			"description": "If not using email as key to Account API's this is the key field",
			"type": "string",
			"pattern": "^[A-Za-z0-9-]{1,36}$"
		},
		"group":{
			"description": "This and email identifies a customer. Used to break down user access",
			"type": "string",
			"pattern": "^[A-Za-z0-9- ]{1,32}$"
		},
		"first_name":{
			"type": "string",
			"pattern": "^[A-Za-z0-9- ']{2,32}$"
		},
		"last_name":{
			"type": "string",
			"pattern": "^[A-Za-z0-9- ']{2,32}$"
		},
		"phone":{
			"type": "string",
			"pattern": "^\\+?\\d{6,12}$"
		},
		"status":{
			"type": "string",
			"enum": ["Enabled", "Disabled"]
		},
		"membership_number":{
			"type": "string",
			"pattern": "^[A-Za-z0-9- ]{1,32}$"
		},
		"membership_expiry":{
			"type": "string",
			"pattern": "^\\d{4}\\-\\d{2}\\-\\d{2}$",
			"description": "YYYY-MM-DD"
		},
		"newsletter":{
			"type": "boolean",
			"description": "Signup for newsletter"
		},
		"address": {
			"type": "object",
			"properties": {
				"line1":{
					"type": "string",
					"pattern": "^.{8,40}$"
				},
				"line2":{
					"type": "string",
					"pattern": "^.{8,40}$"
				},
				"city":{
					"type": "string",
					"pattern": "^.{2,128}$"
				},
				"post_code":{
					"type": "string",
					"pattern": "^.{3,10}$"
				},
				"state":{
					"type": "string",
					"enum": [
						"ACT", "NSW", "NT", "QLD", "SA", "TAS", "VIC", "WA",
						"-- N/A --","AUK","BOP","CAN","COR","GIS","FIO","HKB","MBH","MWT","MCM","NSN","NTL","OTA","STL","TKI","WGN","WKO","WAI","WTC"
					]
				},
				"country":{
					"type": "string",
					"enum": ["Australia","New Zealand"]
				}
			},
			"required": ["line1", "city", "state"]
		},
		"extra_fields": {
			"type": "array",
			"properties": [{
				"name":{
					"type": "string",
					"pattern": "^.{2,40}$"
				},
				"value":{
					"type": "string",
					"pattern": "^.{1,1000}$"
				}
			}],
			"required": ["name", "value"]
		}
	},
	"required": ["client_id", "client_secret", "reference", "email", "group", "first_name", "last_name", "phone", "status", "newsletter"]
}